{
  "formatVersion": 1,
  "database": {
    "version": 8,
    "identityHash": "98137e52bd9d5823f0c1a750caab459e",
    "entities": [
      {
        "tableName": "Country",
        "createSql": "CREATE TABLE IF NOT EXISTS `${TABLE_NAME}` (`uuid` INTEGER PRIMARY KEY AUTOINCREMENT, `code` TEXT, `name` TEXT)",
        "fields": [
          {
            "fieldPath": "uuid",
            "columnName": "uuid",
            "affinity": "INTEGER"
          },
          {
            "fieldPath": "code",
            "columnName": "code",
            "affinity": "TEXT"
          },
          {
            "fieldPath": "name",
            "columnName": "name",
            "affinity": "TEXT"
          }
        ],
        "primaryKey": {
          "columnNames": [
            "uuid"
          ],
          "autoGenerate": true
        },
        "indices": [],
        "foreignKeys": []
      }
    ],
    "setupQueries": [
      "CREATE TABLE IF NOT EXISTS room_master_table (id INTEGER PRIMARY KEY,identity_hash TEXT)",
      "INSERT OR REPLACE INTO room_master_table (id,identity_hash) VALUES(42, \"98137e52bd9d5823f0c1a750caab459e\")"
    ]
  }
}